SDG 10
…
```
## # A tibble: 126 x 13
##    countrycode  year       p10       p50      p90 countryname region regionname
##    <chr>       <dbl>     <dbl>     <dbl>    <dbl> <chr>       <chr>  <chr>     
##  1 CAF          2015 0.3016885 0.9648470 3.289138 Central Af~ SSA    Sub-sahar~
##  2 MDG          2015 0.4628807 1.090282  3.053799 Madagascar  SSA    Sub-sahar~
##  3 SSD          2015 0.3051901 1.105992  3.298814 South Sudan SSA    Sub-sahar~
##  4 COD          2015 0.4943846 1.240888  3.423709 Congo       SSA    Sub-sahar~
##  5 BDI          2015 0.5968512 1.243568  3.089983 Burundi     SSA    Sub-sahar~
##  6 MWI          2015 0.6532858 1.332229  3.341074 Malawi      SSA    Sub-sahar~
##  7 GNB          2015 0.5593104 1.433030  4.440311 Guinea-Bis~ SSA    Sub-sahar~
##  8 MOZ          2015 0.6026522 1.528972  4.913052 Mozambique  SSA    Sub-sahar~
##  9 LSO          2015 0.4073438 1.674930  6.341074 Lesotho     SSA    Sub-sahar~
## 10 RWA          2015 0.8144694 1.758433  4.868913 Rwanda      SSA    Sub-sahar~
## # ... with 116 more rows, and 5 more variables: incomegroup <chr>,
## #   lending <fct>, fcountrycode <fct>, r9010 <dbl>, gini <dbl>
```
…
